F:\webproject\src\main\java\com\epam\javaweb\command\impl\AddReviewCommand.java
F:\webproject\src\main\java\com\epam\javaweb\util\ReviewValidator.java
F:\webproject\src\main\java\com\epam\javaweb\dao\MovieDao.java
F:\webproject\src\main\java\com\epam\javaweb\servlet\ServletController.java
F:\webproject\src\main\java\com\epam\javaweb\dao\DaoFactory.java
F:\webproject\src\main\java\com\epam\javaweb\entity\Identifiable.java
F:\webproject\src\main\java\com\epam\javaweb\builder\Builder.java
F:\webproject\src\main\java\com\epam\javaweb\filter\LocaleFilter.java
F:\webproject\src\main\java\com\epam\javaweb\command\impl\ShowLoginPageCommand.java
F:\webproject\src\main\java\com\epam\javaweb\builder\GenreBuilder.java
F:\webproject\src\main\java\com\epam\javaweb\dao\GenreDao.java
F:\webproject\src\main\java\com\epam\javaweb\command\CommandResult.java
F:\webproject\src\main\java\com\epam\javaweb\entity\Genre.java
F:\webproject\src\main\java\com\epam\javaweb\dao\AbstractDao.java
F:\webproject\src\main\java\com\epam\javaweb\command\impl\LoginCommand.java
F:\webproject\src\main\java\com\epam\javaweb\util\Redirector.java
F:\webproject\src\main\java\com\epam\javaweb\service\GenreService.java
F:\webproject\src\main\java\com\epam\javaweb\util\ShowResultMessageHelper.java
F:\webproject\src\main\java\com\epam\javaweb\command\Command.java
F:\webproject\src\main\java\com\epam\javaweb\builder\MovieBuilder.java
F:\webproject\src\main\java\com\epam\javaweb\command\CommandFactory.java
F:\webproject\src\main\java\com\epam\javaweb\filter\MessageFilter.java
F:\webproject\src\main\java\com\epam\javaweb\entity\User.java
F:\webproject\src\main\java\com\epam\javaweb\builder\UserBuilder.java
F:\webproject\src\main\java\com\epam\javaweb\service\MovieService.java
F:\webproject\src\main\java\com\epam\javaweb\dao\UserDaoImpl.java
F:\webproject\src\main\java\com\epam\javaweb\command\impl\AddRateCommand.java
F:\webproject\src\main\java\com\epam\javaweb\dao\ReviewDaoImpl.java
F:\webproject\src\main\java\com\epam\javaweb\util\Paginator.java
F:\webproject\src\main\java\com\epam\javaweb\service\ReviewService.java
F:\webproject\src\main\java\com\epam\javaweb\dao\UserDao.java
F:\webproject\src\main\java\com\epam\javaweb\command\impl\ShowUsersCommand.java
F:\webproject\src\main\java\com\epam\javaweb\exception\ServiceException.java
F:\webproject\src\main\java\com\epam\javaweb\builder\ReviewBuilder.java
F:\webproject\src\main\java\com\epam\javaweb\command\impl\AddMovieCommand.java
F:\webproject\src\main\java\com\epam\javaweb\dao\ConnectionPool.java
F:\webproject\src\main\java\com\epam\javaweb\command\impl\ShowAdminMoviesCommand.java
F:\webproject\src\main\java\com\epam\javaweb\dao\MovieDaoImpl.java
F:\webproject\src\main\java\com\epam\javaweb\dao\ProxyConnection.java
F:\webproject\src\main\java\com\epam\javaweb\command\impl\ChangeUserStatusCommand.java
F:\webproject\src\main\java\com\epam\javaweb\entity\Movie.java
F:\webproject\src\main\java\com\epam\javaweb\dao\ReviewDao.java
F:\webproject\src\main\java\com\epam\javaweb\tag\LocalDateTag.java
F:\webproject\src\main\java\com\epam\javaweb\command\impl\ShowUserMoviesCommand.java
F:\webproject\src\main\java\com\epam\javaweb\service\UserService.java
F:\webproject\src\main\java\com\epam\javaweb\command\impl\LogoutCommand.java
F:\webproject\src\main\java\com\epam\javaweb\entity\Review.java
F:\webproject\src\main\java\com\epam\javaweb\command\impl\DefaultCommand.java
F:\webproject\src\main\java\com\epam\javaweb\exception\DaoException.java
F:\webproject\src\main\java\com\epam\javaweb\command\impl\LocaleCommand.java
F:\webproject\src\main\java\com\epam\javaweb\builder\BuilderFactory.java
F:\webproject\src\main\java\com\epam\javaweb\command\impl\DeleteReviewCommand.java
F:\webproject\src\main\java\com\epam\javaweb\dao\Dao.java
F:\webproject\src\main\java\com\epam\javaweb\dao\GenreDaoImpl.java
F:\webproject\src\main\java\com\epam\javaweb\command\impl\ChangeUserActivityCommand.java
